0.002,21,25.46091
60.061,21,25.46091
120.074,21,25.79442
180.087,21,25.46091
240.1,20,25.46091
300.113,20,25.46091
360.126,20,25.79442
420.139,20,25.46091
480.152,20,25.46091
540.1649,21,25.12739
600.179,21,23.79332
660.192,21,25.12739
720.205,21,25.12739
780.218,21,25.12739
840.231,21,25.12739
900.244,21,25.12739
960.257,20,25.12739
1020.27,21,25.12739
1080.283,20,24.79387
1140.297,20,24.79387
1200.311,20,24.46035
1260.325,20,24.79387
1320.384,20,25.12739
1380.398,20,25.12739
1440.412,20,24.79387
1500.426,20,24.79387
1560.44,20,24.79387
1620.453,20,24.79387
1680.467,20,25.12739
1740.481,20,24.46035
1800.495,20,24.46035
1860.509,20,24.79387
1920.523,20,24.46035
1980.537,20,24.46035
2040.551,20,24.79387
2100.565,20,24.79387
2160.579,20,24.79387
2220.593,20,24.46035
2280.607,20,24.46035
2340.621,20,24.79387
2400.635,20,24.46035
2460.649,20,24.12684
2520.708,20,24.79387
2580.722,20,24.46035
2640.736,20,24.12684
2700.75,20,24.46035
2760.763,20,24.12684
2820.777,20,24.46035
2880.791,20,24.79387
2940.805,19,24.12684
3000.819,19,24.79387
3060.833,19,24.46035
3120.847,20,24.46035
3180.861,20,24.46035
3240.875,20,24.12684
3300.889,20,24.12684
3360.903,20,24.12684
3420.917,20,24.12684
3480.931,20,24.12684
3540.945,20,24.12684
3600.959,20,23.79332
3660.973,20,23.79332
3720.987,20,24.12684
3781.046,20,24.12684
3841.06,20,24.12684
3901.073,20,24.46035
3961.087,20,24.12684
4021.101,20,24.12684
4081.115,20,24.12684
4141.129,20,24.12684
4201.143,20,24.12684
4261.158,20,24.12684
4321.171,20,24.12684
4381.185,20,23.79332
4441.199,20,24.12684
4501.213,20,23.79332
4561.227,20,24.12684
4621.241,20,24.46035
4681.255,20,23.79332
4741.269,20,23.79332
4801.283,20,23.79332
4861.297,19,23.79332
4921.311,20,24.12684
4981.37,19,24.46035
5041.383,19,24.12684
5101.397,19,23.79332
5161.411,19,23.79332
5221.425,19,24.12684
5281.439,19,23.79332
5341.453,19,23.79332
5401.467,19,23.4598
5461.48,19,23.4598
5521.493,19,24.12684
5581.507,19,23.4598
5641.52,19,24.12684
5701.533,19,23.79332
5761.547,19,23.4598
5821.56,19,23.79332
5881.573,19,23.4598
5941.586,19,23.79332
6001.6,19,23.4598
6061.613,19,23.4598
6121.626,19,23.79332
6181.64,19,23.12629
6241.699,19,23.12629
6301.713,19,23.4598
6361.726,19,23.79332
6421.743,19,23.4598
6481.756,19,23.79332
6541.77,19,23.79332
6601.783,19,23.4598
6661.796,19,23.79332
6721.81,19,23.4598
6781.823,19,23.4598
6841.836,19,23.4598
6901.849,19,23.12629
6961.863,19,23.79332
7021.877,19,23.4598
7081.89,19,23.79332
7141.903,19,23.4598
7201.916,19,23.4598
7261.93,19,23.79332
7321.941,19,23.4598
7381.955,19,23.79332
7441.969,19,23.79332
7501.983,19,23.12629
7562.064,19,23.12629
7622.078,19,23.4598
7682.091,19,23.4598
7742.104,19,23.4598
7802.117,19,23.12629
7862.131,19,23.4598
7922.143,19,23.79332
7982.158,19,23.4598
8042.171,19,23.4598
8102.183,19,23.4598
8162.196,19,23.4598
8222.21,19,23.4598
8282.223,19,23.79332
8342.237,19,23.4598
8402.25,19,23.4598
8462.263,19,22.79277
8522.277,19,23.4598
8582.29,19,23.4598
8642.303,19,23.4598
8702.316,19,23.4598
8762.329,19,23.4598
8822.388,19,23.4598
8882.401,19,23.4598
8942.414,19,23.12629
9002.428,19,23.12629
9062.442,19,23.12629
9122.456,19,23.12629
9182.469,19,23.12629
9242.484,19,23.12629
9302.498,19,23.12629
9362.512,19,23.12629
9422.526,19,23.12629
9482.54,19,23.12629
9542.552,19,23.12629
9602.568,19,23.12629
9662.581,19,23.4598
9722.594,19,23.12629
9782.608,19,23.4598
9842.621,19,23.12629
9902.635,19,23.4598
9962.648,19,23.12629
10022.73,19,23.4598
10082.74,19,23.12629
10142.76,19,23.4598
10202.77,19,23.4598
10262.78,19,23.12629
10322.8,19,23.12629
10382.81,19,23.12629
10442.82,19,22.79277
10502.84,19,23.4598
10562.85,19,23.12629
10622.86,19,23.12629
10682.88,19,22.79277
10742.89,19,23.4598
10802.91,19,23.12629
10862.92,19,23.4598
10922.93,19,23.4598
10982.94,19,23.12629
11042.96,19,23.4598
11102.97,19,22.79277
11162.99,18,22.79277
11223,19,22.79277
11283.06,18,23.12629
11343.07,19,23.12629
11403.09,19,22.79277
11463.1,19,23.12629
11523.11,19,23.12629
11583.13,18,23.12629
11643.14,18,23.12629
11703.16,18,23.12629
11763.17,18,22.79277
11823.18,19,22.79277
11883.2,18,23.12629
11943.21,18,23.4598
12003.22,18,22.79277
12063.24,18,22.79277
12123.25,18,23.12629
12183.27,18,23.4598
12243.28,18,22.79277
12303.29,18,22.79277
12363.31,18,22.79277
12423.32,18,22.79277
12483.33,18,22.79277
12543.39,18,22.79277
12603.41,18,23.12629
12663.42,18,22.79277
12723.44,18,23.12629
12783.45,18,22.79277
12843.46,18,22.79277
12903.48,18,22.79277
12963.49,18,23.12629
13023.51,18,22.79277
13083.52,18,23.12629
13143.53,18,22.79277
13203.55,18,22.79277
13263.56,18,22.79277
13323.58,18,23.12629
13383.59,18,22.45925
13443.6,18,22.79277
13503.62,18,23.12629
13563.63,18,23.12629
13623.64,18,22.45925
13683.66,18,22.45925
13743.67,18,23.12629
13803.73,18,22.79277
13863.75,18,22.79277
13923.76,18,22.79277
13983.77,18,22.79277
14043.79,18,22.79277
14103.8,18,23.12629
14163.81,18,22.79277
14223.83,18,23.12629
14283.84,18,22.45925
14343.86,18,22.45925
14403.87,18,22.79277
14463.89,18,22.79277
14523.9,18,22.79277
14583.91,18,23.12629
14643.93,18,22.79277
14703.94,18,22.79277
14763.96,18,22.79277
14823.97,18,23.12629
14883.99,18,23.12629
14944,18,22.79277
15004.06,18,22.79277
15064.07,18,22.79277
15124.09,18,22.79277
15184.1,18,22.79277
15244.11,18,22.79277
15304.13,18,22.79277
15364.14,18,22.45925
15424.16,18,22.79277
15484.17,18,22.79277
15544.18,18,22.79277
15604.2,18,22.79277
15664.21,18,22.79277
15724.22,18,22.79277
15784.24,18,23.12629
15844.25,18,22.79277
15904.27,18,23.12629
15964.28,18,23.12629
16024.29,18,23.12629
16084.31,18,23.12629
16144.32,18,23.4598
16204.33,18,23.4598
16264.39,18,23.12629
16324.41,18,23.4598
16384.42,18,23.12629
16444.44,18,22.79277
16504.45,18,22.79277
16564.46,18,23.12629
16624.48,18,22.79277
16684.49,18,22.45925
16744.5,18,22.79277
16804.52,18,23.12629
16864.53,18,23.12629
16924.55,18,22.79277
16984.56,18,22.79277
17044.57,18,22.79277
17104.59,18,22.45925
17164.6,18,23.12629
17224.61,18,23.12629
17284.63,18,22.79277
17344.64,18,23.12629
17404.66,18,22.79277
17464.72,18,22.79277
17524.73,18,22.79277
17584.74,18,23.12629
17644.76,18,22.79277
17704.77,18,22.79277
17764.79,18,22.79277
17824.8,18,23.4598
17884.81,18,23.12629
17944.83,19,23.12629
18004.84,19,22.79277
18064.86,19,23.12629
18124.87,18,23.12629
18184.89,18,23.4598
18244.9,19,23.12629
18304.91,19,22.79277
18364.92,19,23.4598
18424.94,19,23.12629
18484.95,19,23.12629
18544.96,19,23.12629
18604.98,19,23.12629
18664.99,19,23.12629
18725.05,19,22.79277
18785.06,19,23.4598
18845.08,19,23.4598
18905.09,19,23.4598
18965.1,19,23.4598
19025.12,19,23.4598
19085.13,19,23.12629
19145.14,19,23.4598
19205.16,19,23.4598
19265.17,19,23.4598
19325.18,19,23.4598
19385.19,19,23.4598
19445.21,19,23.4598
19505.22,19,23.12629
19565.24,19,23.79332
19625.25,19,23.12629
19685.26,19,23.4598
19745.27,19,23.4598
19805.29,19,23.79332
19865.3,19,23.4598
19925.32,19,23.4598
19985.38,19,23.4598
20045.39,19,23.4598
20105.4,19,23.4598
20165.41,19,23.4598
20225.43,19,23.79332
20285.44,19,24.12684
20345.45,19,23.4598
20405.47,19,24.12684
20465.48,19,23.4598
20525.5,19,23.4598
20585.51,19,24.12684
20645.52,19,23.4598
20705.54,19,23.79332
20765.55,19,23.79332
20825.56,19,23.4598
20885.57,19,24.12684
20945.59,19,24.12684
21005.6,20,23.79332
21065.62,20,23.79332
21125.63,20,24.46035
21185.65,20,24.12684
21245.7,20,23.79332
21305.72,20,24.12684
21365.73,20,24.12684
21425.75,20,24.12684
21485.76,20,23.79332
21545.77,20,24.12684
21605.79,20,24.12684
21665.8,20,24.46035
21725.82,20,24.12684
21785.83,20,23.79332
21845.84,20,24.12684
21905.85,20,23.79332
21965.87,20,24.12684
22025.88,20,24.12684
22085.9,20,23.79332
22145.91,20,24.12684
22205.92,20,24.12684
22265.94,20,24.46035
22325.95,20,24.79387
22385.97,20,24.12684
22445.98,20,24.46035
22506.04,20,24.46035
22566.06,20,24.46035
22626.07,20,24.12684
22686.09,20,24.46035
22746.1,20,24.46035
22806.11,20,24.46035
22866.13,20,24.46035
22926.14,20,24.79387
22986.15,20,24.46035
23046.17,20,24.46035
23106.18,20,24.46035
23166.19,20,24.79387
23226.21,20,24.79387
23286.22,20,24.46035
23346.24,20,24.46035
23406.25,20,24.79387
23466.27,20,24.79387
23526.28,20,24.79387
23586.3,20,24.79387
23646.31,20,24.79387
23706.37,20,25.12739
23766.38,20,24.79387
23826.4,20,24.79387
23886.41,20,24.79387
23946.42,20,25.12739
24006.44,20,25.12739
24066.45,20,25.12739
24126.47,20,25.12739
24186.48,20,24.79387
24246.49,20,24.79387
24306.5,20,24.79387
24366.52,20,24.79387
24426.53,20,24.79387
24486.55,20,24.46035
24546.56,20,24.46035
24606.58,20,24.79387
24666.59,20,24.46035
24726.6,20,24.46035
24786.62,20,24.46035
24846.63,20,24.79387
24906.64,20,24.79387
24966.7,20,25.12739
25026.72,20,24.46035
25086.73,20,24.46035
25146.74,20,24.46035
25206.76,20,25.12739
25266.77,20,24.46035
25326.78,20,24.79387
25386.8,20,24.46035
25446.81,20,24.46035
25506.83,20,24.79387
25566.84,20,24.79387
25626.85,20,24.46035
25686.87,20,24.46035
25746.88,20,24.79387
25806.9,20,24.79387
25866.91,20,24.46035
25926.92,20,24.79387
25986.94,20,24.79387
26046.95,20,24.46035
26106.97,20,24.46035
26166.98,20,24.46035
26227.04,20,24.79387
26287.05,20,24.46035
26347.07,20,24.46035
26407.08,20,24.46035
26467.09,20,24.46035
26527.11,20,24.79387
26587.12,20,24.12684
26647.14,20,24.46035
26707.15,20,24.12684
26767.16,20,24.12684
26827.18,20,24.46035
26887.19,20,24.46035
26947.21,20,24.79387
27007.22,20,24.12684
27067.23,20,24.12684
27127.25,20,24.46035
27187.26,20,24.12684
27247.27,20,24.12684
27307.29,20,24.12684
27367.3,20,24.46035
27427.36,20,24.12684
27487.38,20,24.12684
27547.39,20,24.12684
27607.41,20,24.12684
27667.42,20,24.46035
27727.43,20,24.12684
27787.45,20,24.12684
27847.46,20,24.12684
27907.48,20,23.79332
27967.49,20,24.12684
28027.5,20,24.12684
28087.52,20,23.79332
28147.53,20,24.46035
28207.55,20,24.12684
28267.56,20,24.46035
28327.57,20,24.12684
28387.59,20,24.12684
28447.6,20,24.12684
28507.61,20,24.12684
28567.63,20,24.12684
28627.64,20,24.12684
28687.73,20,24.46035
28747.74,20,24.12684
